States	 	Login	data	Redirected
S1	 	1st attempt	invalid	S2
 	 	 	valid	S4
S2	 	2 nd attempt	invalid	S3
 	 	 	valid	S4
S3	 	3 nd attempt	invalid	S5
 	 	 	valid	S4
S4	 	acess granted	NA	NA
 	 	 	 	 
S5	 	access denied	NA	NA